\relax 
\providecommand\hyper@newdestlabel[2]{}
\providecommand\HyperFirstAtBeginDocument{\AtBeginDocument}
\HyperFirstAtBeginDocument{\ifx\hyper@anchor\@undefined
\global\let\oldcontentsline\contentsline
\gdef\contentsline#1#2#3#4{\oldcontentsline{#1}{#2}{#3}}
\global\let\oldnewlabel\newlabel
\gdef\newlabel#1#2{\newlabelxx{#1}#2}
\gdef\newlabelxx#1#2#3#4#5#6{\oldnewlabel{#1}{{#2}{#3}}}
\AtEndDocument{\ifx\hyper@anchor\@undefined
\let\contentsline\oldcontentsline
\let\newlabel\oldnewlabel
\fi}
\fi}
\global\let\hyper@last\relax 
\gdef\HyperFirstAtBeginDocument#1{#1}
\providecommand\HyField@AuxAddToFields[1]{}
\providecommand\HyField@AuxAddToCoFields[2]{}
\select@language{english}
\@writefile{toc}{\select@language{english}}
\@writefile{lof}{\select@language{english}}
\@writefile{lot}{\select@language{english}}
\newlabel{fig:ISIS}{{}{1}{}{Doc-Start}{}}
\@writefile{toc}{\contentsline {title}{Modeling and Verification of SystemC Designs}{2}{chapter.1}}
\@writefile{toc}{\authcount {3}}
\@writefile{toc}{\contentsline {author}{ Ajay D Chhokra\unskip {} \and Peter Volgyesi\unskip {} \and Sherif Abdelwahed\unskip {}}{2}{chapter.1}}
\@writefile{toc}{\contentsline {section}{\numberline {1}Introduction}{2}{section.1.1}}
\newlabel{sec:Introduction}{{1}{2}{Introduction}{section.1.1}{}}
\@writefile{toc}{\contentsline {section}{\numberline {2}Related Work}{2}{section.1.2}}
\newlabel{sec:Related Work}{{2}{2}{Related Work}{section.1.2}{}}
\@writefile{toc}{\contentsline {section}{\numberline {3}STATE}{2}{section.1.3}}
\newlabel{sec:STATE}{{3}{2}{STATE}{section.1.3}{}}
\citation{Karlsson:2006:FVS:1131481.1131824}
\@writefile{toc}{\contentsline {section}{\numberline {4}Modeling of UART using SystemC}{3}{section.1.4}}
\newlabel{sec:Modeling of UART using SystemC}{{4}{3}{Modeling of UART using SystemC}{section.1.4}{}}
\@writefile{toc}{\contentsline {subsection}{\numberline {4.1}Introduction}{3}{subsection.1.4.1}}
\@writefile{toc}{\contentsline {subsection}{\numberline {4.2}Block Diagram}{3}{subsection.1.4.2}}
\@writefile{toc}{\contentsline {subsection}{\numberline {4.3}SystemC Model}{4}{subsection.1.4.3}}
\@writefile{toc}{\contentsline {subsubsection}{Common clock generator}{5}{section*.2}}
\@writefile{toc}{\contentsline {subsubsection}{Transmitter Clock Generator}{5}{section*.3}}
\@writefile{toc}{\contentsline {subsubsection}{Receiver Clock Generator}{5}{section*.4}}
\@writefile{toc}{\contentsline {subsubsection}{UART Transmitter}{6}{section*.5}}
\@writefile{toc}{\contentsline {subsubsection}{UART Receiver}{6}{section*.6}}
\@writefile{toc}{\contentsline {subsubsection}{Modifications}{6}{section*.7}}
\@writefile{loa}{\contentsline {algocf}{\numberline {1}{\ignorespaces Common Clock Generator}}{7}{algocf.1}}
\@writefile{loa}{\contentsline {algocf}{\numberline {2}{\ignorespaces Transmitter Clock Generator}}{7}{algocf.2}}
\@writefile{loa}{\contentsline {algocf}{\numberline {3}{\ignorespaces Receiver Clock Generator }}{7}{algocf.3}}
\@writefile{loa}{\contentsline {algocf}{\numberline {4}{\ignorespaces UART Transmitter}}{8}{algocf.4}}
\@writefile{loa}{\contentsline {algocf}{\numberline {5}{\ignorespaces UART Receiver}}{9}{algocf.5}}
\@writefile{toc}{\contentsline {subsection}{\numberline {4.4}UART Test Cases}{10}{subsection.1.4.4}}
\@writefile{loa}{\contentsline {algocf}{\numberline {6}{\ignorespaces ending}}{10}{algocf.6}}
\@writefile{toc}{\contentsline {section}{\numberline {5}Formal Verification of UART systemC Model}{11}{section.1.5}}
\newlabel{Formal Verification of UART SystemC Model}{{5}{11}{Formal Verification of UART systemC Model}{section.1.5}{}}
\@writefile{toc}{\contentsline {subsection}{\numberline {5.1}UPPAAL Model}{11}{subsection.1.5.1}}
\@writefile{toc}{\contentsline {subsection}{\numberline {5.2}LTL Properties}{11}{subsection.1.5.2}}
\@writefile{lof}{\contentsline {figure}{\numberline {1}{\ignorespaces beg}}{12}{figure.1.1}}
\@writefile{lof}{\contentsline {figure}{\numberline {2}{\ignorespaces ending}}{12}{figure.1.2}}
\@writefile{lof}{\contentsline {figure}{\numberline {3}{\ignorespaces Common Clock Generator}}{13}{figure.1.3}}
\@writefile{lof}{\contentsline {figure}{\numberline {4}{\ignorespaces Receiver Clock Generator}}{13}{figure.1.4}}
\@writefile{lof}{\contentsline {figure}{\numberline {5}{\ignorespaces Transmitter Clock Generator}}{14}{figure.1.5}}
\@writefile{toc}{\contentsline {section}{\numberline {6}Modeling of PWMDAC using SystemC}{15}{section.1.6}}
\newlabel{sec:Modeling of PWMDAC using SystemC}{{6}{15}{Modeling of PWMDAC using SystemC}{section.1.6}{}}
\@writefile{toc}{\contentsline {subsection}{\numberline {6.1}Introduction}{15}{subsection.1.6.1}}
\@writefile{toc}{\contentsline {subsection}{\numberline {6.2}Block Diagram}{15}{subsection.1.6.2}}
\@writefile{toc}{\contentsline {subsection}{\numberline {6.3}SystemC Model}{15}{subsection.1.6.3}}
\@writefile{toc}{\contentsline {subsubsection}{Analog\_update}{16}{section*.8}}
\@writefile{toc}{\contentsline {subsubsection}{clock\_counting}{16}{section*.9}}
\@writefile{toc}{\contentsline {subsubsection}{Init}{16}{section*.10}}
\@writefile{loa}{\contentsline {algocf}{\numberline {7}{\ignorespaces Analog\_update}}{16}{algocf.7}}
\@writefile{loa}{\contentsline {algocf}{\numberline {8}{\ignorespaces Init}}{16}{algocf.8}}
\@writefile{toc}{\contentsline {subsubsection}{Modifications}{17}{section*.11}}
\@writefile{toc}{\contentsline {section}{\numberline {7}Formal Verification of PWMDAC systemC Model}{17}{section.1.7}}
\newlabel{Formal Verification of PWMDAC SystemC Model}{{7}{17}{Formal Verification of PWMDAC systemC Model}{section.1.7}{}}
\@writefile{toc}{\contentsline {subsection}{\numberline {7.1}UPPAAL Model}{17}{subsection.1.7.1}}
\@writefile{toc}{\contentsline {subsection}{\numberline {7.2}LTL Properties}{17}{subsection.1.7.2}}
\@writefile{lof}{\contentsline {figure}{\numberline {6}{\ignorespaces clock counting}}{18}{figure.1.6}}
\@writefile{lof}{\contentsline {figure}{\numberline {7}{\ignorespaces analog update}}{18}{figure.1.7}}
\bibstyle{splncs}
\bibdata{test_file}
\bibcite{Karlsson:2006:FVS:1131481.1131824}{1}
\@writefile{lof}{\contentsline {figure}{\numberline {8}{\ignorespaces init}}{19}{figure.1.8}}
