\relax 
\Newlabel{sponsor}{1}
\Newlabel{vandy}{a}
\Newlabel{sks}{b}
\citation{Armbrust_CACM:10}
\citation{Corradi_DDS_ISCC:12,DoD_Cloud_Strategy:12,SKS_MEDCPS:13}
\citation{SKS_MEDCPS:13}
\citation{RTXen_EMSOFT:11}
\citation{RTXen_EMSOFT:11}
\@writefile{toc}{\contentsline {section}{\numberline {1}Introduction}{2}}
\newlabel{sec:introduction}{{1}{2}}
\citation{Remus_OSDI:08}
\citation{Remus_OSDI:08}
\citation{fontan2008opennebula}
\citation{Xen_SOSP:03}
\citation{OMG-DDS:07}
\citation{Remus_OSDI:08}
\citation{DBLP:journals/sigops/ScalesNV10}
\citation{kemari2008validating}
\citation{HPL-2011-24}
\citation{Remus_OSDI:08}
\citation{Zhang:2013:CCP:2465351.2465388,pu2010understanding,tickoo2010modeling,nathuji2010q}
\@writefile{toc}{\contentsline {section}{\numberline {2}Related Work}{5}}
\newlabel{sec:relwork}{{2}{5}}
\@writefile{toc}{\contentsline {subsection}{\numberline {2.1}High Availability Solutions for Virtual Machines}{5}}
\citation{hyser2007autonomic}
\citation{lee2011validating}
\citation{beloglazov2010energy}
\citation{massie2004ganglia}
\citation{barth2008nagios}
\citation{foster2008cloud}
\citation{huang2007study}
\@writefile{toc}{\contentsline {subsection}{\numberline {2.2}Aproaches to Virtual Machine Placement}{6}}
\@writefile{toc}{\contentsline {subsection}{\numberline {2.3}Resource Monitoring in Large Distributed Systems}{6}}
\citation{han2011virtual}
\citation{de2011toward}
\citation{guinard2010resource}
\citation{fontan2008opennebula}
\citation{Xen_SOSP:03}
\citation{Remus_OSDI:08}
\citation{OMG-DDS:07}
\@writefile{toc}{\contentsline {subsection}{\numberline {2.4}Comparative Analysis}{7}}
\@writefile{toc}{\contentsline {section}{\numberline {3}Overview of Underlying Technologies}{7}}
\newlabel{sec:background}{{3}{7}}
\citation{openstack:Online}
\citation{Eucalyptus:09}
\citation{fontan2008opennebula}
\citation{Xen_SOSP:03}
\citation{kivity2007kvm}
\citation{libvirt}
\citation{Remus_OSDI:08}
\@writefile{toc}{\contentsline {subsection}{\numberline {3.1}Cloud Infrastructure and Virtualization Technologies}{8}}
\newlabel{sec:opennebula_overview}{{3.1}{8}}
\@writefile{toc}{\contentsline {subsection}{\numberline {3.2}Remus High Availability Solution}{8}}
\newlabel{sec:remus_overview}{{3.2}{8}}
\citation{OMG-DDS:07}
\citation{ManyPubSubFaces:03}
\citation{corsaro2009}
\citation{schmidt2008addressing}
\citation{corsaro2006quality}
\@writefile{toc}{\contentsline {subsection}{\numberline {3.3}OMG Data Distribution Service}{9}}
\newlabel{sec:dds_overview}{{3.3}{9}}
\citation{Remus_OSDI:08}
\@writefile{toc}{\contentsline {section}{\numberline {4}Middleware for Highly Available VM-hosted Soft Real-time Applications}{10}}
\newlabel{sec:architecture}{{4}{10}}
\@writefile{toc}{\contentsline {subsection}{\numberline {4.1}Architectural Overview}{10}}
\newlabel{sec:sys_arch}{{4.1}{10}}
\@writefile{toc}{\contentsline {subsection}{\numberline {4.2}Roles and Responsibilities}{10}}
\@writefile{lof}{\contentsline {figure}{\numberline {1}{\ignorespaces Conceptual System Design Illustrating Three Contributions}}{11}}
\newlabel{fig:sys_design}{{1}{11}}
\@writefile{toc}{\contentsline {subsection}{\numberline {4.3}Contribution 1: High-Availability Solution}{11}}
\newlabel{sec:ha}{{4.3}{11}}
\@writefile{toc}{\contentsline {subsubsection}{\numberline {4.3.1}Rationale: Why a Hierarchical Model?}{11}}
\@writefile{lof}{\contentsline {figure}{\numberline {2}{\ignorespaces Roles and Responsibilities}}{12}}
\newlabel{fig:use_case}{{2}{12}}
\@writefile{toc}{\contentsline {subsubsection}{\numberline {4.3.2}Design and Operation}{12}}
\citation{Vlissides:94}
\@writefile{lof}{\contentsline {figure}{\numberline {3}{\ignorespaces System Architecture}}{14}}
\newlabel{fig:sys_arch}{{3}{14}}
\citation{berkey1987two}
\@writefile{toc}{\contentsline {subsection}{\numberline {4.4}Contribution 2: Pluggable Framework for Virtual Machine Replica Placement}{15}}
\newlabel{sec:placement}{{4.4}{15}}
\@writefile{toc}{\contentsline {subsubsection}{\numberline {4.4.1}Rationale: Why a Pluggable Framework?}{15}}
\@writefile{toc}{\contentsline {subsubsection}{\numberline {4.4.2}Design of a Pluggable Framework for Replica VM Placement}{16}}
\@writefile{toc}{\contentsline {subsection}{\numberline {4.5}Contribution 3: Scalable and Real-time Dissemination of Resource Usage}{16}}
\newlabel{sec:disseminate}{{4.5}{16}}
\@writefile{toc}{\contentsline {subsubsection}{\numberline {4.5.1}Rationale: Why Pub/Sub for Cloud Resource Monitoring and Dissemination?}{16}}
\newlabel{sec:why_pubsub}{{4.5.1}{16}}
\citation{ManyPubSubFaces:03}
\citation{OMG-DDS:07}
\@writefile{toc}{\contentsline {subsubsection}{\numberline {4.5.2}Design of a DDS-based Cloud Resource Monitoring Framework}{17}}
\@writefile{toc}{\contentsline {section}{\numberline {5}Experimental Results and Case Study}{17}}
\newlabel{sec:experiment}{{5}{17}}
\citation{dds_benchmark}
\@writefile{lof}{\contentsline {figure}{\numberline {4}{\ignorespaces DDS Entities}}{18}}
\newlabel{fig:monitoring}{{4}{18}}
\@writefile{toc}{\contentsline {subsection}{\numberline {5.1}Rationale for Experiments}{18}}
\newlabel{sec:exp_rationale}{{5.1}{18}}
\@writefile{toc}{\contentsline {subsection}{\numberline {5.2}Representative Applications and Evaluation Testbed}{18}}
\@writefile{lot}{\contentsline {table}{\numberline {1}{\ignorespaces Hardware and Software specification of Cluster Nodes}}{19}}
\newlabel{table:nodedetails}{{1}{19}}
\@writefile{toc}{\contentsline {subsection}{\numberline {5.3}A Concrete VM Placement Algorithm}{19}}
\newlabel{sec:ilp}{{5.3}{19}}
\@writefile{lot}{\contentsline {table}{\numberline {2}{\ignorespaces Notation and Definition of the ILP Formulation}}{20}}
\newlabel{table:notation}{{2}{20}}
\citation{OMG-DDS:07}
\@writefile{toc}{\contentsline {subsection}{\numberline {5.4}Experiment 1: Measuring the Impact on Latency for Soft Real-time Applications}{21}}
\@writefile{toc}{\contentsline {subsection}{\numberline {5.5}Experiment 2: Validating Co-existence of High Availability Solutions}{22}}
\@writefile{lof}{\contentsline {figure}{\numberline {5}{\ignorespaces Latency Performance Test for Remus and Effective Placement}}{23}}
\newlabel{fig:stdev_mean}{{5}{23}}
\@writefile{lof}{\contentsline {figure}{\numberline {6}{\ignorespaces Example of Real-time Data Processing: Word Count}}{24}}
\newlabel{fig:word_count}{{6}{24}}
\@writefile{lot}{\contentsline {table}{\numberline {3}{\ignorespaces DDS QoS Configurations for the Word Count Example}}{25}}
\newlabel{table:qos}{{3}{25}}
\@writefile{lof}{\contentsline {figure}{\numberline {7}{\ignorespaces Experiments for the Case Study}}{26}}
\newlabel{fig:experiments}{{7}{26}}
\@writefile{lof}{\contentsline {figure}{\numberline {8}{\ignorespaces Latency Performance Impact of Remus Replication}}{27}}
\newlabel{fig:remus_latency_overhead}{{8}{27}}
\@writefile{lof}{\contentsline {figure}{\numberline {9}{\ignorespaces DDS Ownership QoS with Remus Failover}}{28}}
\newlabel{fig:remus_failover_overhead}{{9}{28}}
\@writefile{lot}{\contentsline {table}{\numberline {4}{\ignorespaces Failover Impact on Sample Missed Ratio}}{29}}
\newlabel{table:failover_overhead}{{4}{29}}
\@writefile{toc}{\contentsline {section}{\numberline {6}Conclusion}{29}}
\newlabel{sec:conclusion}{{6}{29}}
\bibstyle{elsarticle-num}
\bibdata{cloud,networks}
\bibcite{Armbrust_CACM:10}{{1}{}{{}}{{}}}
\bibcite{Corradi_DDS_ISCC:12}{{2}{}{{}}{{}}}
\bibcite{DoD_Cloud_Strategy:12}{{3}{}{{}}{{}}}
\bibcite{SKS_MEDCPS:13}{{4}{}{{}}{{}}}
\bibcite{RTXen_EMSOFT:11}{{5}{}{{}}{{}}}
\bibcite{Remus_OSDI:08}{{6}{}{{}}{{}}}
\bibcite{fontan2008opennebula}{{7}{}{{}}{{}}}
\bibcite{Xen_SOSP:03}{{8}{}{{}}{{}}}
\bibcite{OMG-DDS:07}{{9}{}{{}}{{}}}
\bibcite{DBLP:journals/sigops/ScalesNV10}{{10}{}{{}}{{}}}
\bibcite{kemari2008validating}{{11}{}{{}}{{}}}
\bibcite{HPL-2011-24}{{12}{}{{}}{{}}}
\bibcite{Zhang:2013:CCP:2465351.2465388}{{13}{}{{}}{{}}}
\bibcite{pu2010understanding}{{14}{}{{}}{{}}}
\bibcite{tickoo2010modeling}{{15}{}{{}}{{}}}
\bibcite{nathuji2010q}{{16}{}{{}}{{}}}
\bibcite{hyser2007autonomic}{{17}{}{{}}{{}}}
\bibcite{lee2011validating}{{18}{}{{}}{{}}}
\bibcite{beloglazov2010energy}{{19}{}{{}}{{}}}
\bibcite{massie2004ganglia}{{20}{}{{}}{{}}}
\bibcite{barth2008nagios}{{21}{}{{}}{{}}}
\bibcite{foster2008cloud}{{22}{}{{}}{{}}}
\bibcite{huang2007study}{{23}{}{{}}{{}}}
\bibcite{han2011virtual}{{24}{}{{}}{{}}}
\bibcite{de2011toward}{{25}{}{{}}{{}}}
\bibcite{guinard2010resource}{{26}{}{{}}{{}}}
\bibcite{openstack:Online}{{27}{}{{}}{{}}}
\bibcite{Eucalyptus:09}{{28}{}{{}}{{}}}
\bibcite{kivity2007kvm}{{29}{}{{}}{{}}}
\bibcite{libvirt}{{30}{}{{}}{{}}}
\bibcite{ManyPubSubFaces:03}{{31}{}{{}}{{}}}
\bibcite{corsaro2009}{{32}{}{{}}{{}}}
\bibcite{schmidt2008addressing}{{33}{}{{}}{{}}}
\bibcite{corsaro2006quality}{{34}{}{{}}{{}}}
\bibcite{Vlissides:94}{{35}{}{{}}{{}}}
\bibcite{berkey1987two}{{36}{}{{}}{{}}}
\bibcite{dds_benchmark}{{37}{}{{}}{{}}}
\providecommand\NAT@force@numbers{}\NAT@force@numbers
\@writefile{toc}{\let\numberline\tmptocnumberline}
\@writefile{toc}{\contentsline {section}{\numberline {Appendix \nobreakspace  {}A}Glossary}{34}}
\newlabel{sec:glossary}{{Appendix \nobreakspace  {}A}{34}}
